%YAML 1.1
%TAG !u! tag:unity3d.com,2011:
--- !u!114 &11400000
MonoBehaviour:
  m_ObjectHideFlags: 0
  m_CorrespondingSourceObject: {fileID: 0}
  m_PrefabInstance: {fileID: 0}
  m_PrefabAsset: {fileID: 0}
  m_GameObject: {fileID: 0}
  m_Enabled: 1
  m_EditorHideFlags: 0
  m_Script: {fileID: 11500000, guid: 9b674cac7988b314ba81b701f7604e89, type: 3}
  m_Name: ExplosiveArrow
  m_EditorClassIdentifier: 
  abilityName: Explosive Arrow
  descryption: Megumin Approves of this one.
  effectType: 2
  additionalEffect: {fileID: 11400000, guid: 745b01939eaa7d64eb681573caab8bf1, type: 2}
  amount: 1
  frequency: 1
  travelSpeed: 10
  power: 5
  range: 20
  cooldown: 1
  body: {fileID: 313333640881504737, guid: afd6957586c5e9f42af16798e30a504c, type: 3}
  travelEffect: {fileID: 3800864110370926550, guid: f9070d9e2b4137640ab43b0b4791d685, type: 3}
  impactEffect: {fileID: 8232755416564770894, guid: 72c05ae926a66ce4fb948cce6721bc75, type: 3}
  playerAnimation: {fileID: 0}
