%YAML 1.1
%TAG !u! tag:unity3d.com,2011:
--- !u!21 &2100000
Material:
  serializedVersion: 6
  m_ObjectHideFlags: 0
  m_CorrespondingSourceObject: {fileID: 0}
  m_PrefabInstance: {fileID: 0}
  m_PrefabAsset: {fileID: 0}
  m_Name: BFGrass01
  m_Shader: {fileID: 4800000, guid: 7cd5d6fe2c6238e469561875c01946f3, type: 3}
  m_ShaderKeywords: USE_RT USE_S USE_SC _RTEFFECT_ON
  m_LightmapFlags: 4
  m_EnableInstancingVariants: 0
  m_DoubleSidedGI: 0
  m_CustomRenderQueue: 2000
  stringTagMap: {}
  disabledShaderPasses: []
  m_SavedProperties:
    serializedVersion: 3
    m_TexEnvs:
    - _BumpMap:
        m_Texture: {fileID: 0}
        m_Scale: {x: 1, y: 1}
        m_Offset: {x: 0, y: 0}
    - _DetailAlbedoMap:
        m_Texture: {fileID: 0}
        m_Scale: {x: 1, y: 1}
        m_Offset: {x: 0, y: 0}
    - _DetailMask:
        m_Texture: {fileID: 0}
        m_Scale: {x: 1, y: 1}
        m_Offset: {x: 0, y: 0}
    - _DetailNormalMap:
        m_Texture: {fileID: 0}
        m_Scale: {x: 1, y: 1}
        m_Offset: {x: 0, y: 0}
    - _Distortion:
        m_Texture: {fileID: 2800000, guid: 7dca70292f589e345aef9b57403a46e6, type: 3}
        m_Scale: {x: 1, y: 1}
        m_Offset: {x: 0, y: 0}
    - _EmissionMap:
        m_Texture: {fileID: 0}
        m_Scale: {x: 1, y: 1}
        m_Offset: {x: 0, y: 0}
    - _GrassTex:
        m_Texture: {fileID: 2800000, guid: 5ddef0977dde72343992a79d27da33fe, type: 3}
        m_Scale: {x: 1, y: 1}
        m_Offset: {x: 0, y: 0}
    - _GroundTex:
        m_Texture: {fileID: 2800000, guid: 7f969087a2b5cf840bdda1c1d1e3a930, type: 3}
        m_Scale: {x: 1, y: 1}
        m_Offset: {x: 0, y: 0}
    - _MainTex:
        m_Texture: {fileID: 2800000, guid: e1f3da621d899e341b0c9d832b1d57d0, type: 3}
        m_Scale: {x: 1, y: 1}
        m_Offset: {x: 0, y: 0}
    - _MetallicGlossMap:
        m_Texture: {fileID: 0}
        m_Scale: {x: 1, y: 1}
        m_Offset: {x: 0, y: 0}
    - _NoGrassTex:
        m_Texture: {fileID: 2800000, guid: 9dd5094df1a6d804c9ce68d7847e4969, type: 3}
        m_Scale: {x: 1, y: 1}
        m_Offset: {x: 0, y: 0}
    - _Noise:
        m_Texture: {fileID: 2800000, guid: 529789b31389da34d9a7f98c613bf944, type: 3}
        m_Scale: {x: 1, y: 1}
        m_Offset: {x: 0, y: 0}
    - _OcclusionMap:
        m_Texture: {fileID: 0}
        m_Scale: {x: 1, y: 1}
        m_Offset: {x: 0, y: 0}
    - _ParallaxMap:
        m_Texture: {fileID: 0}
        m_Scale: {x: 1, y: 1}
        m_Offset: {x: 0, y: 0}
    - _ShadowMapTexture:
        m_Texture: {fileID: 0}
        m_Scale: {x: 1, y: 1}
        m_Offset: {x: 0, y: 0}
    m_Floats:
    - _BumpScale: 1
    - _Cutoff: 0.5
    - _DetailNormalMapScale: 1
    - _DstBlend: 0
    - _FadeAmplitude: 28
    - _FadeDistance: 16
    - _FadeDistanceEnd: 100
    - _FadeDistanceStart: 50
    - _GlossMapScale: 1
    - _Glossiness: 0.5
    - _GlossyReflections: 1
    - _GrassCut: 0
    - _GrassSaturation: 2
    - _GrassShading: 0.085
    - _GrassThinness: 0.4
    - _GrassThinnessIntersection: 0.29
    - _LightIntensity: 1
    - _Metallic: 0
    - _MinimumNumberStacks: 2
    - _Mode: 0
    - _NoisePower: 2
    - _NumberOfStacks: 17
    - _OcclusionStrength: 1
    - _OffsetValue: 1
    - _Parallax: 0.02
    - _ProceduralDistance: 2.71
    - _ProceduralStrength: 5.24
    - _RTEffect: 1
    - _RimMax: 0.62
    - _RimMin: 0.241
    - _RimPower: 3.15
    - _ShadowFuziness: 1
    - _ShadowMax: 0
    - _SmoothnessTextureChannel: 0
    - _SpecularHighlights: 1
    - _SrcBlend: 1
    - _TilingN1: 6.06
    - _TilingN2: 0.05
    - _TilingN3: 1
    - _UVSec: 0
    - _UseAmbientLight: 0
    - _UsePR: 0
    - _UseRT: 1
    - _UseShadow: 1
    - _UseShadowCast: 1
    - _UseWC: 0
    - _WindForce: 0.3
    - _WindMovement: 0.55
    - _WorldRotation: 0
    - _WorldScale: 10
    - _ZWrite: 1
    - __NumberOfStacks: 17
    m_Colors:
    - _Color: {r: 0.56, g: 0.56, b: 0.56, a: 1}
    - _EmissionColor: {r: 0, g: 0, b: 0, a: 1}
    - _GroundColor: {r: 0.90800005, g: 0.90800005, b: 0.90800005, a: 1}
    - _OffsetVector: {r: 0, g: 0, b: 0, a: 0}
    - _PJShadowColor: {r: 0, g: 0, b: 0, a: 1}
    - _ProjectedShadowColor: {r: 0.4528302, g: 0.42296267, b: 0.044855822, a: 1}
    - _RimColor: {r: 0.14566667, g: 0.184, b: 0.09008333, a: 1}
    - _SelfShadowColor: {r: 0.41568628, g: 0.43137255, b: 0.36078432, a: 1}
