%YAML 1.1
%TAG !u! tag:unity3d.com,2011:
--- !u!21 &2100000
Material:
  serializedVersion: 6
  m_ObjectHideFlags: 0
  m_CorrespondingSourceObject: {fileID: 0}
  m_PrefabInstance: {fileID: 0}
  m_PrefabAsset: {fileID: 0}
  m_Name: WarriorBubble
  m_Shader: {fileID: -6465566751694194690, guid: a8c0d3beb53ed28438dd657c68490b42, type: 3}
  m_ShaderKeywords: 
  m_LightmapFlags: 4
  m_EnableInstancingVariants: 0
  m_DoubleSidedGI: 0
  m_CustomRenderQueue: -1
  stringTagMap: {}
  disabledShaderPasses: []
  m_SavedProperties:
    serializedVersion: 3
    m_TexEnvs:
    - Texture2D_9c46802324f341339824034a689a07b5:
        m_Texture: {fileID: 2800000, guid: c77eb976d4dedf44c8595c0d12ed7660, type: 3}
        m_Scale: {x: 1, y: 1}
        m_Offset: {x: 0, y: 0}
    - _Texture2DAsset_e3dc88c8508c4889a1945f6b5302c4f1_Out_0:
        m_Texture: {fileID: 2800000, guid: 6b58fc510e931ca42829bb59ddd389c9, type: 3}
        m_Scale: {x: 1, y: 1}
        m_Offset: {x: 0, y: 0}
    - unity_Lightmaps:
        m_Texture: {fileID: 0}
        m_Scale: {x: 1, y: 1}
        m_Offset: {x: 0, y: 0}
    - unity_LightmapsInd:
        m_Texture: {fileID: 0}
        m_Scale: {x: 1, y: 1}
        m_Offset: {x: 0, y: 0}
    - unity_ShadowMasks:
        m_Texture: {fileID: 0}
        m_Scale: {x: 1, y: 1}
        m_Offset: {x: 0, y: 0}
    m_Floats:
    - Vector1_21ede660c2744bdba54d8ebb85f36045: 0.1
    - Vector1_686b78b49002496782d310ffdcdec395: 3
    - Vector1_6ab72e213d9e488ea76599f1a7850832: 0.01
    - Vector1_b89862f3b729460db43f5939a862567c: 0.2
    m_Colors:
    - Color_Emission: {r: 0, g: 2.8516173, b: 10.680627, a: 0}
  m_BuildTextureStacks: []
