%YAML 1.1
%TAG !u! tag:unity3d.com,2011:
--- !u!21 &2100000
Material:
  serializedVersion: 6
  m_ObjectHideFlags: 0
  m_CorrespondingSourceObject: {fileID: 0}
  m_PrefabInstance: {fileID: 0}
  m_PrefabAsset: {fileID: 0}
  m_Name: BFGrassTerrain01
  m_Shader: {fileID: 4800000, guid: 0108bd98254aa52449e692c4eb92def0, type: 3}
  m_ShaderKeywords: USE_RT USE_SC _RTEFFECT_ON
  m_LightmapFlags: 4
  m_EnableInstancingVariants: 0
  m_DoubleSidedGI: 0
  m_CustomRenderQueue: 2000
  stringTagMap: {}
  disabledShaderPasses: []
  m_SavedProperties:
    serializedVersion: 3
    m_TexEnvs:
    - _BumpMap:
        m_Texture: {fileID: 0}
        m_Scale: {x: 1, y: 1}
        m_Offset: {x: 0, y: 0}
    - _Control:
        m_Texture: {fileID: 0}
        m_Scale: {x: 1, y: 1}
        m_Offset: {x: 0, y: 0}
    - _Control0:
        m_Texture: {fileID: -3973170717174270421, guid: 9ffdee09e9c0fa14282beaf12403978d,
          type: 2}
        m_Scale: {x: 1, y: 1}
        m_Offset: {x: 0, y: 0}
    - _Control1:
        m_Texture: {fileID: 0}
        m_Scale: {x: 1, y: 1}
        m_Offset: {x: 0, y: 0}
    - _Control2:
        m_Texture: {fileID: -3973170717174270421, guid: 9ffdee09e9c0fa14282beaf12403978d,
          type: 2}
        m_Scale: {x: 1, y: 1}
        m_Offset: {x: 0, y: 0}
    - _DetailAlbedoMap:
        m_Texture: {fileID: 0}
        m_Scale: {x: 1, y: 1}
        m_Offset: {x: 0, y: 0}
    - _DetailMask:
        m_Texture: {fileID: 0}
        m_Scale: {x: 1, y: 1}
        m_Offset: {x: 0, y: 0}
    - _DetailNormalMap:
        m_Texture: {fileID: 0}
        m_Scale: {x: 1, y: 1}
        m_Offset: {x: 0, y: 0}
    - _Distortion:
        m_Texture: {fileID: 2800000, guid: 7dca70292f589e345aef9b57403a46e6, type: 3}
        m_Scale: {x: 1, y: 1}
        m_Offset: {x: 0, y: 0}
    - _EmissionMap:
        m_Texture: {fileID: 0}
        m_Scale: {x: 1, y: 1}
        m_Offset: {x: 0, y: 0}
    - _GrassTex:
        m_Texture: {fileID: 2800000, guid: b97e4be25c3932344b0b5b0ffe62377d, type: 3}
        m_Scale: {x: 1, y: 1}
        m_Offset: {x: 0, y: 0}
    - _GroundTex:
        m_Texture: {fileID: 2800000, guid: 7f969087a2b5cf840bdda1c1d1e3a930, type: 3}
        m_Scale: {x: 1, y: 1}
        m_Offset: {x: 0, y: 0}
    - _GroundTexture:
        m_Texture: {fileID: 2800000, guid: 4e1d764fa7e47f34eae88e37253c2542, type: 3}
        m_Scale: {x: 1, y: 1}
        m_Offset: {x: 0, y: 0}
    - _MainTex:
        m_Texture: {fileID: 2800000, guid: 4e1d764fa7e47f34eae88e37253c2542, type: 3}
        m_Scale: {x: 1, y: 1}
        m_Offset: {x: 0, y: 0}
    - _MetallicGlossMap:
        m_Texture: {fileID: 0}
        m_Scale: {x: 1, y: 1}
        m_Offset: {x: 0, y: 0}
    - _NoGrassTex:
        m_Texture: {fileID: 0}
        m_Scale: {x: 1, y: 1}
        m_Offset: {x: 0, y: 0}
    - _Noise:
        m_Texture: {fileID: 2800000, guid: 529789b31389da34d9a7f98c613bf944, type: 3}
        m_Scale: {x: 1, y: 1}
        m_Offset: {x: 0, y: 0}
    - _Normal0:
        m_Texture: {fileID: 0}
        m_Scale: {x: 1, y: 1}
        m_Offset: {x: 0, y: 0}
    - _Normal1:
        m_Texture: {fileID: 0}
        m_Scale: {x: 1, y: 1}
        m_Offset: {x: 0, y: 0}
    - _Normal2:
        m_Texture: {fileID: 0}
        m_Scale: {x: 1, y: 1}
        m_Offset: {x: 0, y: 0}
    - _Normal3:
        m_Texture: {fileID: 0}
        m_Scale: {x: 1, y: 1}
        m_Offset: {x: 0, y: 0}
    - _Normal4:
        m_Texture: {fileID: 2800000, guid: 4e1d764fa7e47f34eae88e37253c2542, type: 3}
        m_Scale: {x: 1, y: 1}
        m_Offset: {x: 0, y: 0}
    - _Normal5:
        m_Texture: {fileID: 2800000, guid: 4e1d764fa7e47f34eae88e37253c2542, type: 3}
        m_Scale: {x: 1, y: 1}
        m_Offset: {x: 0, y: 0}
    - _Normal6:
        m_Texture: {fileID: 2800000, guid: 4e1d764fa7e47f34eae88e37253c2542, type: 3}
        m_Scale: {x: 1, y: 1}
        m_Offset: {x: 0, y: 0}
    - _Normal7:
        m_Texture: {fileID: 2800000, guid: 4e1d764fa7e47f34eae88e37253c2542, type: 3}
        m_Scale: {x: 1, y: 1}
        m_Offset: {x: 0, y: 0}
    - _OcclusionMap:
        m_Texture: {fileID: 0}
        m_Scale: {x: 1, y: 1}
        m_Offset: {x: 0, y: 0}
    - _ParallaxMap:
        m_Texture: {fileID: 0}
        m_Scale: {x: 1, y: 1}
        m_Offset: {x: 0, y: 0}
    - _ShadowMapTexture:
        m_Texture: {fileID: 0}
        m_Scale: {x: 1, y: 1}
        m_Offset: {x: 0, y: 0}
    - _Splat0:
        m_Texture: {fileID: 0}
        m_Scale: {x: 1, y: 1}
        m_Offset: {x: 0, y: 0}
    - _Splat1:
        m_Texture: {fileID: 0}
        m_Scale: {x: 1, y: 1}
        m_Offset: {x: 0, y: 0}
    - _Splat2:
        m_Texture: {fileID: 0}
        m_Scale: {x: 1, y: 1}
        m_Offset: {x: 0, y: 0}
    - _Splat3:
        m_Texture: {fileID: 0}
        m_Scale: {x: 1, y: 1}
        m_Offset: {x: 0, y: 0}
    - _Splat4:
        m_Texture: {fileID: 2800000, guid: 3e9984bb4a8fe7140a3a2380897d51b6, type: 3}
        m_Scale: {x: 1, y: 1}
        m_Offset: {x: 0, y: 1}
    - _Splat5:
        m_Texture: {fileID: 2800000, guid: 35832e4bcb865be44867dbdb64c65aca, type: 3}
        m_Scale: {x: 1, y: 1}
        m_Offset: {x: 0, y: 1}
    - _Splat6:
        m_Texture: {fileID: 2800000, guid: 27893100cc1f09647b28e099d53741ab, type: 3}
        m_Scale: {x: 1, y: 1}
        m_Offset: {x: 0, y: 1}
    - _Splat7:
        m_Texture: {fileID: 2800000, guid: 27893100cc1f09647b28e099d53741ab, type: 3}
        m_Scale: {x: 1, y: 1}
        m_Offset: {x: 0, y: 1}
    - _SplatMap:
        m_Texture: {fileID: -3973170717174270421, guid: 9ffdee09e9c0fa14282beaf12403978d,
          type: 2}
        m_Scale: {x: 1, y: 1}
        m_Offset: {x: 0, y: 0}
    - _TextureA:
        m_Texture: {fileID: 2800000, guid: 369f6fef0ebe1f14aa6ed86d8e55cc6e, type: 3}
        m_Scale: {x: 1, y: 1}
        m_Offset: {x: 0, y: 0}
    - _TextureB:
        m_Texture: {fileID: 0}
        m_Scale: {x: 1, y: 1}
        m_Offset: {x: 0, y: 0}
    - _TextureC:
        m_Texture: {fileID: 0}
        m_Scale: {x: 1, y: 1}
        m_Offset: {x: 0, y: 0}
    - _TextureD:
        m_Texture: {fileID: 0}
        m_Scale: {x: 1, y: 1}
        m_Offset: {x: 0, y: 0}
    m_Floats:
    - _BiPlanarSize: 1
    - _BiPlanarStrength: 0.75
    - _BumpScale: 1
    - _Cutoff: 0.5
    - _DetailNormalMapScale: 1
    - _DstBlend: 0
    - _FadeAmplitude: 28
    - _FadeDistance: 16
    - _FadeDistanceEnd: 200
    - _FadeDistanceStart: 100
    - _GlossMapScale: 1
    - _Glossiness: 0.5
    - _GlossyReflections: 1
    - _GrassCut: 0
    - _GrassSaturation: 1.5
    - _GrassShading: 0.076
    - _GrassThinness: 0.45
    - _GrassThinnessIntersection: 0.36
    - _Metallic: 0
    - _Metallic0: 0
    - _Metallic1: 0
    - _Metallic2: 0
    - _Metallic3: 0
    - _Metallic4: 0
    - _Metallic5: 0
    - _Metallic6: 0
    - _Metallic7: 0
    - _MinimumNumberStacks: 2
    - _Mode: 0
    - _NoisePower: 1.24
    - _NumberOfStacks: 17
    - _OcclusionStrength: 1
    - _OffsetValue: 6
    - _Parallax: 0.02
    - _PrioA: 1
    - _PrioB: 1
    - _PrioC: 1
    - _PrioD: 1
    - _PrioGround: 1
    - _RTEffect: 1
    - _RimMax: 0.591
    - _RimMin: 0.11
    - _RimPower: 3.15
    - _ShadowFuziness: 1
    - _ShadowMax: 0
    - _SmoothnessTextureChannel: 0
    - _SpecularHighlights: 1
    - _SrcBlend: 1
    - _TextureScale: 0.25
    - _TilingN1: 6.8
    - _TilingN2: 0.05
    - _TilingN3: 0.4
    - _UVSec: 0
    - _UseAmbientLight: 0
    - _UseBiplanar: 0
    - _UseRT: 1
    - _UseShadowCast: 1
    - _WindForce: 0.3
    - _WindMovement: 0.2
    - _ZWrite: 1
    - __NumberOfStacks: 17
    m_Colors:
    - _Color: {r: 0.765, g: 0.765, b: 0.765, a: 1}
    - _EmissionColor: {r: 0, g: 0, b: 0, a: 1}
    - _GroundColor: {r: 0.8490566, g: 0.8490566, b: 0.8490566, a: 1}
    - _OffsetVector: {r: 0, g: 0, b: 0, a: 0}
    - _PJShadowColor: {r: 0, g: 0, b: 0, a: 1}
    - _ProjectedShadowColor: {r: 0.4509804, g: 0.23375352, b: 0.04313725, a: 1}
    - _RimColor: {r: 0.277, g: 0.25819692, b: 0.1355532, a: 1}
    - _SelfShadowColor: {r: 0.241, g: 0.23095833, b: 0.056902774, a: 1}
    - _Specular0: {r: 1, g: 1, b: 1, a: 1}
    - _Specular1: {r: 1, g: 1, b: 1, a: 1}
    - _Specular2: {r: 1, g: 1, b: 1, a: 1}
    - _Specular3: {r: 1, g: 1, b: 1, a: 1}
    - _Specular4: {r: 1, g: 0.7783019, b: 0.7783019, a: 1}
    - _Specular5: {r: 0.879, g: 0.879, b: 0.879, a: 1}
    - _Specular6: {r: 1, g: 0.7349295, b: 0.6367924, a: 1}
    - _Specular7: {r: 1, g: 0.7349295, b: 0.6367924, a: 1}
    - _Splat0_S: {r: 1, g: 1, b: 0, a: 1}
    - _Splat4_STA: {r: 1, g: 1, b: 1.5, a: 1}
    - _Splat4_STn: {r: 1, g: 1, b: 3, a: 4.98}
    - _Splat5_STn: {r: 1, g: 1, b: 3.81, a: 1.06}
    - _Splat6_STn: {r: 1, g: 1, b: 1, a: 1.68}
    - _Splat7_STn: {r: 1, g: 1, b: 1, a: 1.68}
