%YAML 1.1
%TAG !u! tag:unity3d.com,2011:
--- !u!114 &11400000
MonoBehaviour:
  m_ObjectHideFlags: 0
  m_CorrespondingSourceObject: {fileID: 0}
  m_PrefabInstance: {fileID: 0}
  m_PrefabAsset: {fileID: 0}
  m_GameObject: {fileID: 0}
  m_Enabled: 1
  m_EditorHideFlags: 0
  m_Script: {fileID: 11500000, guid: e431bd8beca52c74db567d64f4d5bba7, type: 3}
  m_Name: FireStorm
  m_EditorClassIdentifier: 
  abilityName: SunStrike
  descryption: 
  cooldown: 16
  shape: 0
  radius: 6
  dimensions: {x: 0, y: 0, z: 0}
  overrideValues: 0
  targeting: 0
  effectType: 2
  additionalEffect: {fileID: 11400000, guid: f1217eb6502f1c246b916470d0d235c3, type: 2}
  effectBehaviour: 1
  randomized: 0
  spawnHeight: 0
  amount: 20
  frequency: 0.3
  power: 8
  range: 0
  visualBehaviour: 1
  body: {fileID: 855055431044446746, guid: 37f56d44c99c064458008d56452cd1eb, type: 3}
  mainEffect: {fileID: 0}
  playerAnimation: {fileID: 0}
