%YAML 1.1
%TAG !u! tag:unity3d.com,2011:
--- !u!1001 &3619107273033325699
PrefabInstance:
  m_ObjectHideFlags: 0
  serializedVersion: 2
  m_Modification:
    m_TransformParent: {fileID: 0}
    m_Modifications:
    - target: {fileID: 1101056107816918480, guid: 6fd6fb0df7e29c641acd0ba3d8d210d3, type: 3}
      propertyPath: m_RootOrder
      value: 0
      objectReference: {fileID: 0}
    - target: {fileID: 1101056107816918480, guid: 6fd6fb0df7e29c641acd0ba3d8d210d3, type: 3}
      propertyPath: m_LocalScale.x
      value: 1
      objectReference: {fileID: 0}
    - target: {fileID: 1101056107816918480, guid: 6fd6fb0df7e29c641acd0ba3d8d210d3, type: 3}
      propertyPath: m_LocalScale.y
      value: 1
      objectReference: {fileID: 0}
    - target: {fileID: 1101056107816918480, guid: 6fd6fb0df7e29c641acd0ba3d8d210d3, type: 3}
      propertyPath: m_LocalScale.z
      value: 1
      objectReference: {fileID: 0}
    - target: {fileID: 1101056107816918480, guid: 6fd6fb0df7e29c641acd0ba3d8d210d3, type: 3}
      propertyPath: m_LocalPosition.x
      value: 0
      objectReference: {fileID: 0}
    - target: {fileID: 1101056107816918480, guid: 6fd6fb0df7e29c641acd0ba3d8d210d3, type: 3}
      propertyPath: m_LocalPosition.y
      value: 0
      objectReference: {fileID: 0}
    - target: {fileID: 1101056107816918480, guid: 6fd6fb0df7e29c641acd0ba3d8d210d3, type: 3}
      propertyPath: m_LocalPosition.z
      value: 0
      objectReference: {fileID: 0}
    - target: {fileID: 1101056107816918480, guid: 6fd6fb0df7e29c641acd0ba3d8d210d3, type: 3}
      propertyPath: m_LocalRotation.w
      value: 1
      objectReference: {fileID: 0}
    - target: {fileID: 1101056107816918480, guid: 6fd6fb0df7e29c641acd0ba3d8d210d3, type: 3}
      propertyPath: m_LocalRotation.x
      value: 0
      objectReference: {fileID: 0}
    - target: {fileID: 1101056107816918480, guid: 6fd6fb0df7e29c641acd0ba3d8d210d3, type: 3}
      propertyPath: m_LocalRotation.y
      value: 0
      objectReference: {fileID: 0}
    - target: {fileID: 1101056107816918480, guid: 6fd6fb0df7e29c641acd0ba3d8d210d3, type: 3}
      propertyPath: m_LocalRotation.z
      value: 0
      objectReference: {fileID: 0}
    - target: {fileID: 1101056107816918480, guid: 6fd6fb0df7e29c641acd0ba3d8d210d3, type: 3}
      propertyPath: m_LocalEulerAnglesHint.x
      value: 0
      objectReference: {fileID: 0}
    - target: {fileID: 1101056107816918480, guid: 6fd6fb0df7e29c641acd0ba3d8d210d3, type: 3}
      propertyPath: m_LocalEulerAnglesHint.y
      value: 0
      objectReference: {fileID: 0}
    - target: {fileID: 1101056107816918480, guid: 6fd6fb0df7e29c641acd0ba3d8d210d3, type: 3}
      propertyPath: m_LocalEulerAnglesHint.z
      value: 0
      objectReference: {fileID: 0}
    - target: {fileID: 1698806308943739269, guid: 6fd6fb0df7e29c641acd0ba3d8d210d3, type: 3}
      propertyPath: m_Materials.Array.data[1]
      value: 
      objectReference: {fileID: 2100000, guid: d5b0e091beb557d4eacd100d9751e1cf, type: 2}
    - target: {fileID: 4115416405751721923, guid: 6fd6fb0df7e29c641acd0ba3d8d210d3, type: 3}
      propertyPath: m_Name
      value: AN_Broadleaf_2_Green
      objectReference: {fileID: 0}
    - target: {fileID: 4115416405751721923, guid: 6fd6fb0df7e29c641acd0ba3d8d210d3, type: 3}
      propertyPath: m_Layer
      value: 9
      objectReference: {fileID: 0}
    - target: {fileID: 4517115109068951032, guid: 6fd6fb0df7e29c641acd0ba3d8d210d3, type: 3}
      propertyPath: m_Materials.Array.data[1]
      value: 
      objectReference: {fileID: 2100000, guid: d5b0e091beb557d4eacd100d9751e1cf, type: 2}
    - target: {fileID: 6555181298313072377, guid: 6fd6fb0df7e29c641acd0ba3d8d210d3, type: 3}
      propertyPath: m_Materials.Array.data[1]
      value: 
      objectReference: {fileID: 2100000, guid: d5b0e091beb557d4eacd100d9751e1cf, type: 2}
    - target: {fileID: 7245478666000284037, guid: 6fd6fb0df7e29c641acd0ba3d8d210d3, type: 3}
      propertyPath: m_Layer
      value: 9
      objectReference: {fileID: 0}
    - target: {fileID: 8059609763065958349, guid: 6fd6fb0df7e29c641acd0ba3d8d210d3, type: 3}
      propertyPath: m_Layer
      value: 9
      objectReference: {fileID: 0}
    - target: {fileID: 8173162647424953063, guid: 6fd6fb0df7e29c641acd0ba3d8d210d3, type: 3}
      propertyPath: m_Layer
      value: 9
      objectReference: {fileID: 0}
    m_RemovedComponents: []
  m_SourcePrefab: {fileID: 100100000, guid: 6fd6fb0df7e29c641acd0ba3d8d210d3, type: 3}
