%YAML 1.1
%TAG !u! tag:unity3d.com,2011:
--- !u!1001 &6319442751047541428
PrefabInstance:
  m_ObjectHideFlags: 0
  serializedVersion: 2
  m_Modification:
    m_TransformParent: {fileID: 0}
    m_Modifications:
    - target: {fileID: 716307589424007676, guid: 23d9de927a33d9f4c8a82a60a898d3a9, type: 3}
      propertyPath: InitialModule.startColor.maxColor.b
      value: 1
      objectReference: {fileID: 0}
    - target: {fileID: 716307589424007676, guid: 23d9de927a33d9f4c8a82a60a898d3a9, type: 3}
      propertyPath: InitialModule.startColor.maxColor.g
      value: 0.757931
      objectReference: {fileID: 0}
    - target: {fileID: 716307589424007676, guid: 23d9de927a33d9f4c8a82a60a898d3a9, type: 3}
      propertyPath: InitialModule.startColor.maxColor.r
      value: 0
      objectReference: {fileID: 0}
    - target: {fileID: 716307589424007676, guid: 23d9de927a33d9f4c8a82a60a898d3a9, type: 3}
      propertyPath: InitialModule.startColor.minColor.b
      value: 1
      objectReference: {fileID: 0}
    - target: {fileID: 716307589424007676, guid: 23d9de927a33d9f4c8a82a60a898d3a9, type: 3}
      propertyPath: InitialModule.startColor.minColor.g
      value: 0.9262843
      objectReference: {fileID: 0}
    - target: {fileID: 716307589424007676, guid: 23d9de927a33d9f4c8a82a60a898d3a9, type: 3}
      propertyPath: InitialModule.startColor.minColor.r
      value: 0
      objectReference: {fileID: 0}
    - target: {fileID: 716307589424007677, guid: 23d9de927a33d9f4c8a82a60a898d3a9, type: 3}
      propertyPath: m_Mesh
      value: 
      objectReference: {fileID: 3459558937732994617, guid: 768933318cf219149926cdacdda5654d, type: 3}
    - target: {fileID: 716307589424007677, guid: 23d9de927a33d9f4c8a82a60a898d3a9, type: 3}
      propertyPath: m_Materials.Array.size
      value: 1
      objectReference: {fileID: 0}
    - target: {fileID: 716307589424007677, guid: 23d9de927a33d9f4c8a82a60a898d3a9, type: 3}
      propertyPath: m_Materials.Array.data[0]
      value: 
      objectReference: {fileID: 2100000, guid: 97deca4d41f379c4bb31c69b3abeb8e0, type: 2}
    - target: {fileID: 716307589678968694, guid: 23d9de927a33d9f4c8a82a60a898d3a9, type: 3}
      propertyPath: m_Materials.Array.size
      value: 1
      objectReference: {fileID: 0}
    - target: {fileID: 716307589678968694, guid: 23d9de927a33d9f4c8a82a60a898d3a9, type: 3}
      propertyPath: m_Materials.Array.data[0]
      value: 
      objectReference: {fileID: 2100000, guid: f2398d750275d9748ae22ec2b9468c7f, type: 2}
    - target: {fileID: 716307589678968695, guid: 23d9de927a33d9f4c8a82a60a898d3a9, type: 3}
      propertyPath: InitialModule.startColor.maxColor.b
      value: 1
      objectReference: {fileID: 0}
    - target: {fileID: 716307589678968695, guid: 23d9de927a33d9f4c8a82a60a898d3a9, type: 3}
      propertyPath: InitialModule.startColor.maxColor.g
      value: 0.8993242
      objectReference: {fileID: 0}
    - target: {fileID: 716307589678968695, guid: 23d9de927a33d9f4c8a82a60a898d3a9, type: 3}
      propertyPath: InitialModule.startColor.maxColor.r
      value: 0
      objectReference: {fileID: 0}
    - target: {fileID: 716307589678968695, guid: 23d9de927a33d9f4c8a82a60a898d3a9, type: 3}
      propertyPath: InitialModule.startColor.minColor.b
      value: 1
      objectReference: {fileID: 0}
    - target: {fileID: 716307589678968695, guid: 23d9de927a33d9f4c8a82a60a898d3a9, type: 3}
      propertyPath: InitialModule.startColor.minColor.g
      value: 0.7110803
      objectReference: {fileID: 0}
    - target: {fileID: 716307589678968695, guid: 23d9de927a33d9f4c8a82a60a898d3a9, type: 3}
      propertyPath: InitialModule.startColor.minColor.r
      value: 0
      objectReference: {fileID: 0}
    - target: {fileID: 716307590003962636, guid: 23d9de927a33d9f4c8a82a60a898d3a9, type: 3}
      propertyPath: m_Materials.Array.size
      value: 1
      objectReference: {fileID: 0}
    - target: {fileID: 716307590003962636, guid: 23d9de927a33d9f4c8a82a60a898d3a9, type: 3}
      propertyPath: m_Materials.Array.data[0]
      value: 
      objectReference: {fileID: 2100000, guid: 14304384608105c49a868bd3b5d24074, type: 2}
    - target: {fileID: 716307590003962637, guid: 23d9de927a33d9f4c8a82a60a898d3a9, type: 3}
      propertyPath: InitialModule.startColor.maxColor.b
      value: 0.98472285
      objectReference: {fileID: 0}
    - target: {fileID: 716307590003962637, guid: 23d9de927a33d9f4c8a82a60a898d3a9, type: 3}
      propertyPath: InitialModule.startColor.maxColor.g
      value: 1
      objectReference: {fileID: 0}
    - target: {fileID: 716307590003962637, guid: 23d9de927a33d9f4c8a82a60a898d3a9, type: 3}
      propertyPath: InitialModule.startColor.maxColor.r
      value: 0
      objectReference: {fileID: 0}
    - target: {fileID: 747400044719390099, guid: 23d9de927a33d9f4c8a82a60a898d3a9, type: 3}
      propertyPath: m_Materials.Array.size
      value: 1
      objectReference: {fileID: 0}
    - target: {fileID: 747400044719390099, guid: 23d9de927a33d9f4c8a82a60a898d3a9, type: 3}
      propertyPath: m_Materials.Array.data[0]
      value: 
      objectReference: {fileID: 2100000, guid: f2398d750275d9748ae22ec2b9468c7f, type: 2}
    - target: {fileID: 747400044719390099, guid: 23d9de927a33d9f4c8a82a60a898d3a9, type: 3}
      propertyPath: m_Materials.Array.data[1]
      value: 
      objectReference: {fileID: 2100000, guid: f2398d750275d9748ae22ec2b9468c7f, type: 2}
    - target: {fileID: 1261516753743819815, guid: 23d9de927a33d9f4c8a82a60a898d3a9, type: 3}
      propertyPath: m_Mesh
      value: 
      objectReference: {fileID: 3459558937732994617, guid: 768933318cf219149926cdacdda5654d, type: 3}
    - target: {fileID: 1261516753743819815, guid: 23d9de927a33d9f4c8a82a60a898d3a9, type: 3}
      propertyPath: m_Materials.Array.size
      value: 1
      objectReference: {fileID: 0}
    - target: {fileID: 1261516753743819815, guid: 23d9de927a33d9f4c8a82a60a898d3a9, type: 3}
      propertyPath: m_Materials.Array.data[0]
      value: 
      objectReference: {fileID: 2100000, guid: 97deca4d41f379c4bb31c69b3abeb8e0, type: 2}
    - target: {fileID: 1987002405569388500, guid: 23d9de927a33d9f4c8a82a60a898d3a9, type: 3}
      propertyPath: m_IsActive
      value: 1
      objectReference: {fileID: 0}
    - target: {fileID: 2503115678242397458, guid: 23d9de927a33d9f4c8a82a60a898d3a9, type: 3}
      propertyPath: InitialModule.startColor.maxColor.b
      value: 1
      objectReference: {fileID: 0}
    - target: {fileID: 2503115678242397458, guid: 23d9de927a33d9f4c8a82a60a898d3a9, type: 3}
      propertyPath: InitialModule.startColor.maxColor.g
      value: 0.8979101
      objectReference: {fileID: 0}
    - target: {fileID: 2503115678242397458, guid: 23d9de927a33d9f4c8a82a60a898d3a9, type: 3}
      propertyPath: InitialModule.startColor.maxColor.r
      value: 0
      objectReference: {fileID: 0}
    - target: {fileID: 2503115678242397458, guid: 23d9de927a33d9f4c8a82a60a898d3a9, type: 3}
      propertyPath: InitialModule.startColor.minColor.b
      value: 1
      objectReference: {fileID: 0}
    - target: {fileID: 2503115678242397458, guid: 23d9de927a33d9f4c8a82a60a898d3a9, type: 3}
      propertyPath: InitialModule.startColor.minColor.g
      value: 0.5089133
      objectReference: {fileID: 0}
    - target: {fileID: 2503115678242397458, guid: 23d9de927a33d9f4c8a82a60a898d3a9, type: 3}
      propertyPath: InitialModule.startColor.minColor.r
      value: 0
      objectReference: {fileID: 0}
    - target: {fileID: 2536087477363584167, guid: 23d9de927a33d9f4c8a82a60a898d3a9, type: 3}
      propertyPath: m_Name
      value: ArrowRain
      objectReference: {fileID: 0}
    - target: {fileID: 2935191156057628492, guid: 23d9de927a33d9f4c8a82a60a898d3a9, type: 3}
      propertyPath: m_Materials.Array.size
      value: 1
      objectReference: {fileID: 0}
    - target: {fileID: 2935191156057628492, guid: 23d9de927a33d9f4c8a82a60a898d3a9, type: 3}
      propertyPath: m_Materials.Array.data[0]
      value: 
      objectReference: {fileID: 2100000, guid: f2398d750275d9748ae22ec2b9468c7f, type: 2}
    - target: {fileID: 2935191156057628492, guid: 23d9de927a33d9f4c8a82a60a898d3a9, type: 3}
      propertyPath: m_Materials.Array.data[1]
      value: 
      objectReference: {fileID: 2100000, guid: f2398d750275d9748ae22ec2b9468c7f, type: 2}
    - target: {fileID: 3871329963169011927, guid: 23d9de927a33d9f4c8a82a60a898d3a9, type: 3}
      propertyPath: InitialModule.startColor.maxColor.b
      value: 1
      objectReference: {fileID: 0}
    - target: {fileID: 3871329963169011927, guid: 23d9de927a33d9f4c8a82a60a898d3a9, type: 3}
      propertyPath: InitialModule.startColor.maxColor.g
      value: 0.4384992
      objectReference: {fileID: 0}
    - target: {fileID: 3871329963169011927, guid: 23d9de927a33d9f4c8a82a60a898d3a9, type: 3}
      propertyPath: InitialModule.startColor.maxColor.r
      value: 0
      objectReference: {fileID: 0}
    - target: {fileID: 4241565966426159334, guid: 23d9de927a33d9f4c8a82a60a898d3a9, type: 3}
      propertyPath: m_BoundingSphereOverride.w
      value: -2.2759266
      objectReference: {fileID: 0}
    - target: {fileID: 4241565966426159334, guid: 23d9de927a33d9f4c8a82a60a898d3a9, type: 3}
      propertyPath: m_BoundingSphereOverride.x
      value: 7.52e-43
      objectReference: {fileID: 0}
    - target: {fileID: 4241565966426159334, guid: 23d9de927a33d9f4c8a82a60a898d3a9, type: 3}
      propertyPath: m_BoundingSphereOverride.y
      value: 1.61e-43
      objectReference: {fileID: 0}
    - target: {fileID: 4832003314233222004, guid: 23d9de927a33d9f4c8a82a60a898d3a9, type: 3}
      propertyPath: InitialModule.startColor.maxColor.b
      value: 1
      objectReference: {fileID: 0}
    - target: {fileID: 4832003314233222004, guid: 23d9de927a33d9f4c8a82a60a898d3a9, type: 3}
      propertyPath: InitialModule.startColor.maxColor.g
      value: 0.8272922
      objectReference: {fileID: 0}
    - target: {fileID: 4832003314233222004, guid: 23d9de927a33d9f4c8a82a60a898d3a9, type: 3}
      propertyPath: InitialModule.startColor.maxColor.r
      value: 0
      objectReference: {fileID: 0}
    - target: {fileID: 4832003314233222004, guid: 23d9de927a33d9f4c8a82a60a898d3a9, type: 3}
      propertyPath: InitialModule.startColor.minColor.b
      value: 1
      objectReference: {fileID: 0}
    - target: {fileID: 4832003314233222004, guid: 23d9de927a33d9f4c8a82a60a898d3a9, type: 3}
      propertyPath: InitialModule.startColor.minColor.g
      value: 0.5964391
      objectReference: {fileID: 0}
    - target: {fileID: 4832003314233222004, guid: 23d9de927a33d9f4c8a82a60a898d3a9, type: 3}
      propertyPath: InitialModule.startColor.minColor.r
      value: 0
      objectReference: {fileID: 0}
    - target: {fileID: 5265555303882891824, guid: 23d9de927a33d9f4c8a82a60a898d3a9, type: 3}
      propertyPath: m_Enabled
      value: 0
      objectReference: {fileID: 0}
    - target: {fileID: 5265555303882891824, guid: 23d9de927a33d9f4c8a82a60a898d3a9, type: 3}
      propertyPath: m_Materials.Array.size
      value: 1
      objectReference: {fileID: 0}
    - target: {fileID: 5265555303882891824, guid: 23d9de927a33d9f4c8a82a60a898d3a9, type: 3}
      propertyPath: m_Materials.Array.data[0]
      value: 
      objectReference: {fileID: 2100000, guid: 312616c2ae9286149b2081471b964732, type: 2}
    - target: {fileID: 5265555303882891824, guid: 23d9de927a33d9f4c8a82a60a898d3a9, type: 3}
      propertyPath: m_Materials.Array.data[1]
      value: 
      objectReference: {fileID: 2100000, guid: 312616c2ae9286149b2081471b964732, type: 2}
    - target: {fileID: 6148237958116926480, guid: 23d9de927a33d9f4c8a82a60a898d3a9, type: 3}
      propertyPath: InitialModule.startColor.maxColor.b
      value: 1
      objectReference: {fileID: 0}
    - target: {fileID: 6148237958116926480, guid: 23d9de927a33d9f4c8a82a60a898d3a9, type: 3}
      propertyPath: InitialModule.startColor.maxColor.g
      value: 0.70135355
      objectReference: {fileID: 0}
    - target: {fileID: 6148237958116926480, guid: 23d9de927a33d9f4c8a82a60a898d3a9, type: 3}
      propertyPath: InitialModule.startColor.maxColor.r
      value: 0
      objectReference: {fileID: 0}
    - target: {fileID: 8657765166678242946, guid: 23d9de927a33d9f4c8a82a60a898d3a9, type: 3}
      propertyPath: m_RootOrder
      value: 0
      objectReference: {fileID: 0}
    - target: {fileID: 8657765166678242946, guid: 23d9de927a33d9f4c8a82a60a898d3a9, type: 3}
      propertyPath: m_LocalPosition.x
      value: 0
      objectReference: {fileID: 0}
    - target: {fileID: 8657765166678242946, guid: 23d9de927a33d9f4c8a82a60a898d3a9, type: 3}
      propertyPath: m_LocalPosition.y
      value: 0
      objectReference: {fileID: 0}
    - target: {fileID: 8657765166678242946, guid: 23d9de927a33d9f4c8a82a60a898d3a9, type: 3}
      propertyPath: m_LocalPosition.z
      value: 0
      objectReference: {fileID: 0}
    - target: {fileID: 8657765166678242946, guid: 23d9de927a33d9f4c8a82a60a898d3a9, type: 3}
      propertyPath: m_LocalRotation.w
      value: 1
      objectReference: {fileID: 0}
    - target: {fileID: 8657765166678242946, guid: 23d9de927a33d9f4c8a82a60a898d3a9, type: 3}
      propertyPath: m_LocalRotation.x
      value: 0
      objectReference: {fileID: 0}
    - target: {fileID: 8657765166678242946, guid: 23d9de927a33d9f4c8a82a60a898d3a9, type: 3}
      propertyPath: m_LocalRotation.y
      value: 0
      objectReference: {fileID: 0}
    - target: {fileID: 8657765166678242946, guid: 23d9de927a33d9f4c8a82a60a898d3a9, type: 3}
      propertyPath: m_LocalRotation.z
      value: 0
      objectReference: {fileID: 0}
    - target: {fileID: 8657765166678242946, guid: 23d9de927a33d9f4c8a82a60a898d3a9, type: 3}
      propertyPath: m_LocalEulerAnglesHint.x
      value: 0
      objectReference: {fileID: 0}
    - target: {fileID: 8657765166678242946, guid: 23d9de927a33d9f4c8a82a60a898d3a9, type: 3}
      propertyPath: m_LocalEulerAnglesHint.y
      value: 0
      objectReference: {fileID: 0}
    - target: {fileID: 8657765166678242946, guid: 23d9de927a33d9f4c8a82a60a898d3a9, type: 3}
      propertyPath: m_LocalEulerAnglesHint.z
      value: 0
      objectReference: {fileID: 0}
    - target: {fileID: 9099381478651815378, guid: 23d9de927a33d9f4c8a82a60a898d3a9, type: 3}
      propertyPath: m_IsActive
      value: 1
      objectReference: {fileID: 0}
    m_RemovedComponents: []
  m_SourcePrefab: {fileID: 100100000, guid: 23d9de927a33d9f4c8a82a60a898d3a9, type: 3}
