%YAML 1.1
%TAG !u! tag:unity3d.com,2011:
--- !u!1 &6452097477429837372
GameObject:
  m_ObjectHideFlags: 0
  m_CorrespondingSourceObject: {fileID: 0}
  m_PrefabInstance: {fileID: 0}
  m_PrefabAsset: {fileID: 0}
  serializedVersion: 6
  m_Component:
  - component: {fileID: 6278181515674567674}
  m_Layer: 0
  m_Name: SunStrike_Effect
  m_TagString: Untagged
  m_Icon: {fileID: 0}
  m_NavMeshLayer: 0
  m_StaticEditorFlags: 0
  m_IsActive: 1
--- !u!4 &6278181515674567674
Transform:
  m_ObjectHideFlags: 0
  m_CorrespondingSourceObject: {fileID: 0}
  m_PrefabInstance: {fileID: 0}
  m_PrefabAsset: {fileID: 0}
  m_GameObject: {fileID: 6452097477429837372}
  m_LocalRotation: {x: 0, y: 0, z: 0, w: 1}
  m_LocalPosition: {x: 0, y: 0, z: 0}
  m_LocalScale: {x: 1, y: 1, z: 1}
  m_Children:
  - {fileID: 4986793955091902299}
  m_Father: {fileID: 0}
  m_RootOrder: 0
  m_LocalEulerAnglesHint: {x: 0, y: 0, z: 0}
--- !u!1001 &4575621061094861718
PrefabInstance:
  m_ObjectHideFlags: 0
  serializedVersion: 2
  m_Modification:
    m_TransformParent: {fileID: 6278181515674567674}
    m_Modifications:
    - target: {fileID: 3460036252011550863, guid: 6998beebd80986346aa635143db5bc0f, type: 3}
      propertyPath: m_IsActive
      value: 0
      objectReference: {fileID: 0}
    - target: {fileID: 8812270903708320968, guid: 6998beebd80986346aa635143db5bc0f, type: 3}
      propertyPath: m_Name
      value: Spell_Fire_6_LWRP
      objectReference: {fileID: 0}
    - target: {fileID: 8812270903708320973, guid: 6998beebd80986346aa635143db5bc0f, type: 3}
      propertyPath: m_RootOrder
      value: 0
      objectReference: {fileID: 0}
    - target: {fileID: 8812270903708320973, guid: 6998beebd80986346aa635143db5bc0f, type: 3}
      propertyPath: m_LocalPosition.x
      value: 0
      objectReference: {fileID: 0}
    - target: {fileID: 8812270903708320973, guid: 6998beebd80986346aa635143db5bc0f, type: 3}
      propertyPath: m_LocalPosition.y
      value: 4
      objectReference: {fileID: 0}
    - target: {fileID: 8812270903708320973, guid: 6998beebd80986346aa635143db5bc0f, type: 3}
      propertyPath: m_LocalPosition.z
      value: 0
      objectReference: {fileID: 0}
    - target: {fileID: 8812270903708320973, guid: 6998beebd80986346aa635143db5bc0f, type: 3}
      propertyPath: m_LocalRotation.w
      value: 1
      objectReference: {fileID: 0}
    - target: {fileID: 8812270903708320973, guid: 6998beebd80986346aa635143db5bc0f, type: 3}
      propertyPath: m_LocalRotation.x
      value: 0
      objectReference: {fileID: 0}
    - target: {fileID: 8812270903708320973, guid: 6998beebd80986346aa635143db5bc0f, type: 3}
      propertyPath: m_LocalRotation.y
      value: 0
      objectReference: {fileID: 0}
    - target: {fileID: 8812270903708320973, guid: 6998beebd80986346aa635143db5bc0f, type: 3}
      propertyPath: m_LocalRotation.z
      value: 0
      objectReference: {fileID: 0}
    - target: {fileID: 8812270903708320973, guid: 6998beebd80986346aa635143db5bc0f, type: 3}
      propertyPath: m_LocalEulerAnglesHint.x
      value: 0
      objectReference: {fileID: 0}
    - target: {fileID: 8812270903708320973, guid: 6998beebd80986346aa635143db5bc0f, type: 3}
      propertyPath: m_LocalEulerAnglesHint.y
      value: 0
      objectReference: {fileID: 0}
    - target: {fileID: 8812270903708320973, guid: 6998beebd80986346aa635143db5bc0f, type: 3}
      propertyPath: m_LocalEulerAnglesHint.z
      value: 0
      objectReference: {fileID: 0}
    m_RemovedComponents:
    - {fileID: 6859878046986940111, guid: 6998beebd80986346aa635143db5bc0f, type: 3}
  m_SourcePrefab: {fileID: 100100000, guid: 6998beebd80986346aa635143db5bc0f, type: 3}
--- !u!4 &4986793955091902299 stripped
Transform:
  m_CorrespondingSourceObject: {fileID: 8812270903708320973, guid: 6998beebd80986346aa635143db5bc0f, type: 3}
  m_PrefabInstance: {fileID: 4575621061094861718}
  m_PrefabAsset: {fileID: 0}
